%YAML 1.1
%TAG !u! tag:unity3d.com,2011:
--- !u!1001 &3894454362713498301
PrefabInstance:
  m_ObjectHideFlags: 0
  serializedVersion: 2
  m_Modification:
    m_TransformParent: {fileID: 0}
    m_Modifications:
    - target: {fileID: 430947683618284992, guid: b87dac9f54d0cad40acfab966764a247, type: 3}
      propertyPath: m_Name
      value: DeathEffect_m3
      objectReference: {fileID: 0}
    - target: {fileID: 430947683618284998, guid: b87dac9f54d0cad40acfab966764a247, type: 3}
      propertyPath: lengthInSec
      value: 0.25
      objectReference: {fileID: 0}
    - target: {fileID: 430947683618284998, guid: b87dac9f54d0cad40acfab966764a247, type: 3}
      propertyPath: EmissionModule.rateOverTime.scalar
      value: 1000
      objectReference: {fileID: 0}
    - target: {fileID: 430947683618284998, guid: b87dac9f54d0cad40acfab966764a247, type: 3}
      propertyPath: InitialModule.startColor.maxGradient.key0.b
      value: 0.3820755
      objectReference: {fileID: 0}
    - target: {fileID: 430947683618284998, guid: b87dac9f54d0cad40acfab966764a247, type: 3}
      propertyPath: InitialModule.startColor.maxGradient.key0.g
      value: 0.71415734
      objectReference: {fileID: 0}
    - target: {fileID: 430947683618284998, guid: b87dac9f54d0cad40acfab966764a247, type: 3}
      propertyPath: InitialModule.startColor.maxGradient.key0.r
      value: 1
      objectReference: {fileID: 0}
    - target: {fileID: 430947683618284998, guid: b87dac9f54d0cad40acfab966764a247, type: 3}
      propertyPath: InitialModule.startColor.maxGradient.key1.b
      value: 0
      objectReference: {fileID: 0}
    - target: {fileID: 430947683618284998, guid: b87dac9f54d0cad40acfab966764a247, type: 3}
      propertyPath: InitialModule.startColor.maxGradient.key1.g
      value: 0.35996664
      objectReference: {fileID: 0}
    - target: {fileID: 430947683618284998, guid: b87dac9f54d0cad40acfab966764a247, type: 3}
      propertyPath: InitialModule.startColor.maxGradient.key1.r
      value: 0.6698113
      objectReference: {fileID: 0}
    - target: {fileID: 430947683618284999, guid: b87dac9f54d0cad40acfab966764a247, type: 3}
      propertyPath: m_RootOrder
      value: 0
      objectReference: {fileID: 0}
    - target: {fileID: 430947683618284999, guid: b87dac9f54d0cad40acfab966764a247, type: 3}
      propertyPath: m_LocalPosition.x
      value: -1.648
      objectReference: {fileID: 0}
    - target: {fileID: 430947683618284999, guid: b87dac9f54d0cad40acfab966764a247, type: 3}
      propertyPath: m_LocalPosition.y
      value: 1
      objectReference: {fileID: 0}
    - target: {fileID: 430947683618284999, guid: b87dac9f54d0cad40acfab966764a247, type: 3}
      propertyPath: m_LocalPosition.z
      value: 0
      objectReference: {fileID: 0}
    - target: {fileID: 430947683618284999, guid: b87dac9f54d0cad40acfab966764a247, type: 3}
      propertyPath: m_LocalRotation.w
      value: 1
      objectReference: {fileID: 0}
    - target: {fileID: 430947683618284999, guid: b87dac9f54d0cad40acfab966764a247, type: 3}
      propertyPath: m_LocalRotation.x
      value: 0
      objectReference: {fileID: 0}
    - target: {fileID: 430947683618284999, guid: b87dac9f54d0cad40acfab966764a247, type: 3}
      propertyPath: m_LocalRotation.y
      value: 0
      objectReference: {fileID: 0}
    - target: {fileID: 430947683618284999, guid: b87dac9f54d0cad40acfab966764a247, type: 3}
      propertyPath: m_LocalRotation.z
      value: 0
      objectReference: {fileID: 0}
    - target: {fileID: 430947683618284999, guid: b87dac9f54d0cad40acfab966764a247, type: 3}
      propertyPath: m_LocalEulerAnglesHint.x
      value: 0
      objectReference: {fileID: 0}
    - target: {fileID: 430947683618284999, guid: b87dac9f54d0cad40acfab966764a247, type: 3}
      propertyPath: m_LocalEulerAnglesHint.y
      value: 0
      objectReference: {fileID: 0}
    - target: {fileID: 430947683618284999, guid: b87dac9f54d0cad40acfab966764a247, type: 3}
      propertyPath: m_LocalEulerAnglesHint.z
      value: 0
      objectReference: {fileID: 0}
    m_RemovedComponents: []
  m_SourcePrefab: {fileID: 100100000, guid: b87dac9f54d0cad40acfab966764a247, type: 3}
