[api-updater (non-obsolete-error-filter)] 27.06.2022 20:53:28 : Starting C:/Program Files/Unity/Hub/Editor/2020.3.26f1/Editor/Data/Tools/ScriptUpdater/APIUpdater.NonObsoleteApiUpdaterDetector.exe
[api-updater (non-obsolete-error-filter)] 
----------------------------------
jit/startup time      : 952,46ms
moved types parse time: 69ms
candidates parse time : 2ms
C# parse time         : 331ms
candidates check time : 38ms
console write time    : 0ms

